INDEX VERSION 1.126+/home/dmousmane/Fac/L3/Algo/workspace/.metadata/.plugins/org.eclipse.jdt.core
392775124.index
2307328643.index
3900037835.index
664741535.index
1259291233.index
1513993030.index
2426646370.index
989528713.index
460152253.index
3723580665.index
2598035366.index
3542660237.index
2259717368.index
3938652823.index
